\relax 
\bibstyle{biblatex}
\bibdata{Report-blx,References}
\citation{biblatex-control}
\abx@aux@refcontext{none/global//global/global}
\@writefile{toc}{\boolfalse {citerequest}\boolfalse {citetracker}\boolfalse {pagetracker}\boolfalse {backtracker}\relax }
\@writefile{lof}{\boolfalse {citerequest}\boolfalse {citetracker}\boolfalse {pagetracker}\boolfalse {backtracker}\relax }
\@writefile{lot}{\boolfalse {citerequest}\boolfalse {citetracker}\boolfalse {pagetracker}\boolfalse {backtracker}\relax }
\@writefile{toc}{\defcounter {refsection}{0}\relax }\@writefile{toc}{\contentsline {section}{\numberline {1}Introduction}{3}}
\@writefile{toc}{\defcounter {refsection}{0}\relax }\@writefile{toc}{\contentsline {subsection}{\numberline {1.1}Motivation and Application}{3}}
\@writefile{toc}{\defcounter {refsection}{0}\relax }\@writefile{toc}{\contentsline {subsection}{\numberline {1.2}Aims}{3}}
\citation{BeerLambert}
\abx@aux@cite{BeerLambert}
\abx@aux@segm{0}{0}{BeerLambert}
\citation{ParallelHole}
\abx@aux@cite{ParallelHole}
\abx@aux@segm{0}{0}{ParallelHole}
\@writefile{lof}{\defcounter {refsection}{0}\relax }\@writefile{lof}{\contentsline {figure}{\numberline {2.1}{\ignorespaces A parallel hole collimator with hole diameter d and septal thickness t. Dashed line: the trajectory of a photon which has the shortest septal path to travel from one hole to the next.\relax }}{4}}
\providecommand*\caption@xref[2]{\@setref\relax\@undefined{#1}}
\newlabel{ShortestSeptalPath}{{2.1}{4}}
\@writefile{toc}{\defcounter {refsection}{0}\relax }\@writefile{toc}{\contentsline {section}{\numberline {2}Theory and Background}{4}}
\@writefile{toc}{\defcounter {refsection}{0}\relax }\@writefile{toc}{\contentsline {subsection}{\numberline {2.1}Attenuation of Photons}{4}}
\newlabel{Attenuation}{{2.1}{4}}
\newlabel{Eq:BeerLambert}{{2.1}{4}}
\newlabel{AttenuationCoeff}{{2.2}{4}}
\@writefile{toc}{\defcounter {refsection}{0}\relax }\@writefile{toc}{\contentsline {subsection}{\numberline {2.2}Septal Penetration}{4}}
\@writefile{toc}{\defcounter {refsection}{0}\relax }\@writefile{toc}{\contentsline {subsection}{\numberline {2.3}Performance Characteristics of Collimators}{4}}
\@writefile{toc}{\defcounter {refsection}{0}\relax }\@writefile{toc}{\contentsline {subsubsection}{\numberline {2.3.1}Resolution}{4}}
\citation{ParallelHole}
\abx@aux@segm{0}{0}{ParallelHole}
\citation{ParallelHole}
\abx@aux@segm{0}{0}{ParallelHole}
\@writefile{lof}{\defcounter {refsection}{0}\relax }\@writefile{lof}{\contentsline {figure}{\numberline {2.2}{\ignorespaces Radiation profile (PSF or LSF) for a parallel hole collimator. \cite {ParallelHole}. The FWHM is used to characterise the collimator resolution.\relax }}{5}}
\newlabel{RadiationProfile}{{2.2}{5}}
\@writefile{toc}{\defcounter {refsection}{0}\relax }\@writefile{toc}{\contentsline {subsubsection}{\numberline {2.3.2}Sensitivity and Efficiency}{5}}
\@writefile{toc}{\defcounter {refsection}{0}\relax }\@writefile{toc}{\contentsline {subsection}{\numberline {2.4}The Gaussian Function}{5}}
\newlabel{Gaussian}{{2.4}{5}}
\newlabel{FWHM}{{2.7}{5}}
\citation{Kjell}
\abx@aux@cite{Kjell}
\abx@aux@segm{0}{0}{Kjell}
\@writefile{toc}{\defcounter {refsection}{0}\relax }\@writefile{toc}{\contentsline {section}{\numberline {3}The Model}{7}}
\@writefile{toc}{\defcounter {refsection}{0}\relax }\@writefile{toc}{\contentsline {subsection}{\numberline {3.1}Simulation Inputs}{7}}
\@writefile{toc}{\defcounter {refsection}{0}\relax }\@writefile{toc}{\contentsline {subsection}{\numberline {3.2}Photon Information}{7}}
\@writefile{toc}{\defcounter {refsection}{0}\relax }\@writefile{toc}{\contentsline {subsection}{\numberline {3.3}The Step Method}{7}}
\newlabel{StepMethod}{{3.3}{7}}
\newlabel{ModelInputs:1}{{3.1a}{8}}
\newlabel{sub@ModelInputs:1}{{a}{8}}
\newlabel{ModelInputs:2}{{3.1b}{8}}
\newlabel{sub@ModelInputs:2}{{b}{8}}
\@writefile{lof}{\defcounter {refsection}{0}\relax }\@writefile{lof}{\contentsline {figure}{\numberline {3.1}{\ignorespaces Images of the simulation inputs section of the program.\relax }}{8}}
\newlabel{ModelInputs}{{3.1}{8}}
\newlabel{ModelInputsPinhole}{{3.2a}{9}}
\newlabel{sub@ModelInputsPinhole}{{a}{9}}
\newlabel{ModelInputsParallel}{{3.2b}{9}}
\newlabel{sub@ModelInputsParallel}{{b}{9}}
\@writefile{lof}{\defcounter {refsection}{0}\relax }\@writefile{lof}{\contentsline {figure}{\numberline {3.2}{\ignorespaces Diagrams to illustrate the model parameters.\relax }}{9}}
\newlabel{ModelInputsDiagram}{{3.2}{9}}
\@writefile{lof}{\defcounter {refsection}{0}\relax }\@writefile{lof}{\contentsline {figure}{\numberline {3.3}{\ignorespaces Attributes of the object iphot.\relax }}{9}}
\newlabel{iphot}{{3.3}{9}}
\@writefile{lof}{\defcounter {refsection}{0}\relax }\@writefile{lof}{\contentsline {figure}{\numberline {3.4}{\ignorespaces Arrays that store the indexes of photons in iphot.\relax }}{9}}
\newlabel{iphotarrays}{{3.4}{9}}
\@writefile{lof}{\defcounter {refsection}{0}\relax }\@writefile{lof}{\contentsline {figure}{\numberline {3.5}{\ignorespaces An example of a photon path through a parallel hole collimator with the path length s labelled.\relax }}{10}}
\newlabel{PhotonPath}{{3.5}{10}}
\@writefile{toc}{\defcounter {refsection}{0}\relax }\@writefile{toc}{\contentsline {subsection}{\numberline {3.4}Data Processing and Outputs}{10}}
\newlabel{ExOutputs:1}{{3.6a}{11}}
\newlabel{sub@ExOutputs:1}{{a}{11}}
\newlabel{ExOutputs:2}{{3.6b}{11}}
\newlabel{sub@ExOutputs:2}{{b}{11}}
\newlabel{ExOutputs:3}{{3.6c}{11}}
\newlabel{sub@ExOutputs:3}{{c}{11}}
\newlabel{ExOutputs4}{{3.6d}{11}}
\newlabel{sub@ExOutputs4}{{d}{11}}
\@writefile{lof}{\defcounter {refsection}{0}\relax }\@writefile{lof}{\contentsline {figure}{\numberline {3.6}{\ignorespaces Example outputs of CollimatorModel.py for a pinhole collimator.\relax }}{11}}
\newlabel{Outputs}{{3.6}{11}}
\@writefile{lof}{\defcounter {refsection}{0}\relax }\@writefile{lof}{\contentsline {figure}{\numberline {3.7}{\ignorespaces Tables displaying how the program run time changes with step size and photon number.\relax }}{12}}
\newlabel{RunTime}{{3.7}{12}}
\@writefile{toc}{\defcounter {refsection}{0}\relax }\@writefile{toc}{\contentsline {subsection}{\numberline {3.5}Model Speed}{12}}
\citation{Activity}
\abx@aux@cite{Activity}
\abx@aux@segm{0}{0}{Activity}
\citation{CoDataSheet}
\abx@aux@cite{CoDataSheet}
\abx@aux@segm{0}{0}{CoDataSheet}
\newlabel{ExperimentPics:1}{{4.1a}{13}}
\newlabel{sub@ExperimentPics:1}{{a}{13}}
\newlabel{ExperimentPics:2}{{4.1b}{13}}
\newlabel{sub@ExperimentPics:2}{{b}{13}}
\@writefile{lof}{\defcounter {refsection}{0}\relax }\@writefile{lof}{\contentsline {figure}{\numberline {4.1}{\ignorespaces Photographs of the experimental setup. (a) Full picture of the lead stand, collimator, detector and the three source positions. Source positions are labelled with red arrows. (b) Closer picture of the collimator, detector and lowest source position.\relax }}{13}}
\newlabel{ExperimentPics}{{4.1}{13}}
\@writefile{toc}{\defcounter {refsection}{0}\relax }\@writefile{toc}{\contentsline {section}{\numberline {4}Experimental Procedure}{13}}
\newlabel{Experiment}{{4}{13}}
\@writefile{toc}{\defcounter {refsection}{0}\relax }\@writefile{toc}{\contentsline {subsection}{\numberline {4.1}Experimental Method}{13}}
\@writefile{toc}{\defcounter {refsection}{0}\relax }\@writefile{toc}{\contentsline {subsection}{\numberline {4.2}The Source}{13}}
\citation{SolidAngle}
\abx@aux@cite{SolidAngle}
\abx@aux@segm{0}{0}{SolidAngle}
\@writefile{lof}{\defcounter {refsection}{0}\relax }\@writefile{lof}{\contentsline {figure}{\numberline {4.2}{\ignorespaces Plot showing how the spectral efficiency of the detector at 122keV depends on source-to-detector distance d.\relax }}{14}}
\newlabel{Graph:SpectralEfficiency}{{4.2}{14}}
\@writefile{toc}{\defcounter {refsection}{0}\relax }\@writefile{toc}{\contentsline {subsection}{\numberline {4.3}The Detector}{14}}
\newlabel{Detector}{{4.3}{14}}
\citation{Kjell}
\abx@aux@segm{0}{0}{Kjell}
\newlabel{ExpSens}{{4.4}{15}}
\@writefile{toc}{\defcounter {refsection}{0}\relax }\@writefile{toc}{\contentsline {subsection}{\numberline {4.4}Data Processing and Outputs}{15}}
\citation{Pinhole}
\abx@aux@cite{Pinhole}
\abx@aux@segm{0}{0}{Pinhole}
\@writefile{toc}{\defcounter {refsection}{0}\relax }\@writefile{toc}{\contentsline {section}{\numberline {5}Modelling a knife-edge pinhole collimator}{16}}
\@writefile{toc}{\defcounter {refsection}{0}\relax }\@writefile{toc}{\contentsline {subsection}{\numberline {5.1}Analytic results \cite {Pinhole}}{16}}
\newlabel{PinholeSens}{{5.1}{16}}
\newlabel{PinholeSensEffectiveDiameter}{{5.2}{16}}
\newlabel{PinholeRes}{{5.3}{16}}
\newlabel{PinholeResEffectiveDiameter}{{5.4}{16}}
\@writefile{toc}{\defcounter {refsection}{0}\relax }\@writefile{toc}{\contentsline {subsection}{\numberline {5.2}Testing the Model Against the Analytic Results}{16}}
\@writefile{toc}{\defcounter {refsection}{0}\relax }\@writefile{toc}{\contentsline {subsubsection}{\numberline {5.2.1}Varying the Source-to-Collimator Distance}{16}}
\@writefile{toc}{\defcounter {refsection}{0}\relax }\@writefile{toc}{\contentsline {subsubsection}{\numberline {5.2.2}Varying the Hole Diameter}{16}}
\newlabel{PinholeChangingDiameter}{{5.2.2}{16}}
\@writefile{lof}{\defcounter {refsection}{0}\relax }\@writefile{lof}{\contentsline {figure}{\numberline {5.1}{\ignorespaces The geometry of a knife-edge pinhole collimator with a point source. The diameter d and full acceptance angle $\alpha $ of the collimator are labelled as well as the source-to-collimator distance h and collimator-to-detector distance L. $\theta $ is the angle the line connecting the source to the centre of the hole makes with the plane of the hole.\relax }}{17}}
\newlabel{PinholeDiagram}{{5.1}{17}}
\@writefile{lof}{\defcounter {refsection}{0}\relax }\@writefile{lof}{\contentsline {figure}{\numberline {5.2}{\ignorespaces Collimator and model parameters used to generate figure 5.3\hbox {}.\relax }}{17}}
\newlabel{Table:PinholeVaryingh}{{5.2}{17}}
\@writefile{lof}{\defcounter {refsection}{0}\relax }\@writefile{lof}{\contentsline {figure}{\numberline {5.3}{\ignorespaces Graph showing how the sensitivity of a knife edge pinhole collimator depends on the source-to-collimator distance for the model (blue) compared to the analytic expression (orange). The model displays an approximate inverse square law as predicted by the analytic expression. \relax }}{18}}
\newlabel{Graph:PinholeVaryingh}{{5.3}{18}}
\@writefile{lof}{\defcounter {refsection}{0}\relax }\@writefile{lof}{\contentsline {figure}{\numberline {5.4}{\ignorespaces Collimator and model parameters used to generate the plots in figure 5.5\hbox {}.\relax }}{18}}
\newlabel{Table:PinholeVaryingd}{{5.4}{18}}
\newlabel{Graph:PinholeVaryingdSens}{{5.5a}{19}}
\newlabel{sub@Graph:PinholeVaryingdSens}{{a}{19}}
\newlabel{Graph:PinholeVaryingdRes}{{5.5b}{19}}
\newlabel{sub@Graph:PinholeVaryingdRes}{{b}{19}}
\@writefile{lof}{\defcounter {refsection}{0}\relax }\@writefile{lof}{\contentsline {figure}{\numberline {5.5}{\ignorespaces Plots to show how the sensitivity and resolution of a knife-edge pinhole depend on hole diameter for the model (blue) compared to the analytic expressions (orange).\relax }}{19}}
\newlabel{Graph:PinholeVaryingd}{{5.5}{19}}
\newlabel{PinholeGaussianComparison:1}{{5.6a}{20}}
\newlabel{sub@PinholeGaussianComparison:1}{{a}{20}}
\newlabel{PinholeGaussianComparison:2}{{5.6b}{20}}
\newlabel{sub@PinholeGaussianComparison:2}{{b}{20}}
\@writefile{lof}{\defcounter {refsection}{0}\relax }\@writefile{lof}{\contentsline {figure}{\numberline {5.6}{\ignorespaces A comparison between a pinhole collimator PSF and the Gaussian distribution that is fitted to the PSF by the model.\relax }}{20}}
\newlabel{PinholeGaussianComparison}{{5.6}{20}}
\@writefile{toc}{\defcounter {refsection}{0}\relax }\@writefile{toc}{\contentsline {subsection}{\numberline {5.3}Testing the Model Against Experimental Results}{20}}
\@writefile{toc}{\defcounter {refsection}{0}\relax }\@writefile{toc}{\contentsline {subsubsection}{\numberline {5.3.1}Sensitivity}{20}}
\@writefile{toc}{\defcounter {refsection}{0}\relax }\@writefile{toc}{\contentsline {subsubsection}{\numberline {5.3.2}Efficiency}{20}}
\@writefile{toc}{\defcounter {refsection}{0}\relax }\@writefile{toc}{\contentsline {subsubsection}{\numberline {5.3.3}Resolution}{20}}
\newlabel{PinholeExpImages:1}{{5.7a}{21}}
\newlabel{sub@PinholeExpImages:1}{{a}{21}}
\newlabel{PinholeExpImages:2}{{5.7b}{21}}
\newlabel{sub@PinholeExpImages:2}{{b}{21}}
\newlabel{PinholeExpImages:4}{{5.7c}{21}}
\newlabel{sub@PinholeExpImages:4}{{c}{21}}
\newlabel{PinholeExpImages:3}{{5.7d}{21}}
\newlabel{sub@PinholeExpImages:3}{{d}{21}}
\newlabel{PinholeExpImages:5}{{5.7e}{21}}
\newlabel{sub@PinholeExpImages:5}{{e}{21}}
\newlabel{PinholeExpImages:6}{{5.7f}{21}}
\newlabel{sub@PinholeExpImages:6}{{f}{21}}
\@writefile{lof}{\defcounter {refsection}{0}\relax }\@writefile{lof}{\contentsline {figure}{\numberline {5.7}{\ignorespaces Comparison of experimental and model images at three different source-to-collimator distances. Left column: Experimental images. Right column: Model images. Top row: source closest to collimator, h = 53.87mm. Middle row: source at middle distance from collimator, h = 362.87mm. Bottom row: source furthest away from collimator, h = 668.87mm.\relax }}{21}}
\newlabel{PinholeExpImages}{{5.7}{21}}
\@writefile{lof}{\defcounter {refsection}{0}\relax }\@writefile{lof}{\contentsline {figure}{\numberline {5.8}{\ignorespaces Comparison of experimental and model sensitivities at three different source-to-collimator distances.\relax }}{22}}
\newlabel{Table:PinholeExpSens}{{5.8}{22}}
\@writefile{toc}{\defcounter {refsection}{0}\relax }\@writefile{toc}{\contentsline {subsection}{\numberline {5.4}Conclusions}{22}}
\newlabel{Graph:PinholeExpEfficiency}{{5.9a}{23}}
\newlabel{sub@Graph:PinholeExpEfficiency}{{a}{23}}
\newlabel{Graph:PinholeExpResolution}{{5.9b}{23}}
\newlabel{sub@Graph:PinholeExpResolution}{{b}{23}}
\@writefile{lof}{\defcounter {refsection}{0}\relax }\@writefile{lof}{\contentsline {figure}{\numberline {5.9}{\ignorespaces Graphs showing how the efficiency and resolution of a knife edge pinhole collimator depend on the source-to-collimator distance. \relax }}{23}}
\citation{ParallelHole}
\abx@aux@segm{0}{0}{ParallelHole}
\citation{ParallelHole}
\abx@aux@segm{0}{0}{ParallelHole}
\citation{ParallelHole}
\abx@aux@segm{0}{0}{ParallelHole}
\@writefile{toc}{\defcounter {refsection}{0}\relax }\@writefile{toc}{\contentsline {section}{\numberline {6}Modelling a Square Parallel Hole Collimator}{24}}
\@writefile{toc}{\defcounter {refsection}{0}\relax }\@writefile{toc}{\contentsline {subsection}{\numberline {6.1}Analytic results \cite {ParallelHole}}{24}}
\newlabel{ParallelHoleSens}{{6.1}{24}}
\newlabel{ParallelHoleRes}{{6.2}{24}}
\@writefile{toc}{\defcounter {refsection}{0}\relax }\@writefile{toc}{\contentsline {subsection}{\numberline {6.2}Testing the Model Against the Analytic Results}{24}}
\@writefile{toc}{\defcounter {refsection}{0}\relax }\@writefile{toc}{\contentsline {subsection}{\numberline {6.3}Testing the Model Against Experimental Results}{24}}
\@writefile{lof}{\defcounter {refsection}{0}\relax }\@writefile{lof}{\contentsline {figure}{\numberline {6.1}{\ignorespaces The geometry of a parallel hole collimator with a point source. The length l and diameter d of the collimator holes are labelled as well as the septal thickness t and the source-to-collimator distance h.\relax }}{25}}
\newlabel{ParallelHoleDiagram}{{6.1}{25}}
\@writefile{lof}{\defcounter {refsection}{0}\relax }\@writefile{lof}{\contentsline {figure}{\numberline {6.2}{\ignorespaces Explanation for constant sensitivity with source-to-collimator distance for a point source and parallel hole collimator. \autocite {ParallelHole}\relax }}{25}}
\newlabel{ConstantSens}{{6.2}{25}}
\@writefile{lof}{\defcounter {refsection}{0}\relax }\@writefile{lof}{\contentsline {figure}{\numberline {6.3}{\ignorespaces Model parameters used to generate the plots in figure 6.4\hbox {}\relax }}{25}}
\newlabel{Table:ParallelAnalytic}{{6.3}{25}}
\newlabel{Graph:PinholeVaryingdSens}{{6.4a}{26}}
\newlabel{sub@Graph:PinholeVaryingdSens}{{a}{26}}
\newlabel{Graph:PinholeVaryingdRes}{{6.4b}{26}}
\newlabel{sub@Graph:PinholeVaryingdRes}{{b}{26}}
\@writefile{lof}{\defcounter {refsection}{0}\relax }\@writefile{lof}{\contentsline {figure}{\numberline {6.4}{\ignorespaces Plots to show how the sensitivity and resolution of a square parallel hole collimator depend on source-to-collimator distance for the model (blue) compared to the analytic expressions (orange).\relax }}{26}}
\newlabel{Graph:ParallelAnalytic}{{6.4}{26}}
\newlabel{ParallelGaussianComparison:1}{{6.5a}{27}}
\newlabel{sub@ParallelGaussianComparison:1}{{a}{27}}
\newlabel{ParallelGaussianComparison:2}{{6.5b}{27}}
\newlabel{sub@ParallelGaussianComparison:2}{{b}{27}}
\@writefile{lof}{\defcounter {refsection}{0}\relax }\@writefile{lof}{\contentsline {figure}{\numberline {6.5}{\ignorespaces A comparison between a parallel hole collimator PSF and the Gaussian that is fitted to the PSF.\relax }}{27}}
\newlabel{ParallelGaussianComparison}{{6.5}{27}}
\@writefile{toc}{\defcounter {refsection}{0}\relax }\@writefile{toc}{\contentsline {subsection}{\numberline {6.4}Conclusions}{27}}
\newlabel{ParallelExpImages:1}{{6.6a}{28}}
\newlabel{sub@ParallelExpImages:1}{{a}{28}}
\newlabel{ParallelExpImages:2}{{6.6b}{28}}
\newlabel{sub@ParallelExpImages:2}{{b}{28}}
\newlabel{ParallelExpImages:4}{{6.6c}{28}}
\newlabel{sub@ParallelExpImages:4}{{c}{28}}
\newlabel{ParallelExpImages:3}{{6.6d}{28}}
\newlabel{sub@ParallelExpImages:3}{{d}{28}}
\newlabel{ParallelExpImages:5}{{6.6e}{28}}
\newlabel{sub@ParallelExpImages:5}{{e}{28}}
\newlabel{ParallelExpImages:6}{{6.6f}{28}}
\newlabel{sub@ParallelExpImages:6}{{f}{28}}
\@writefile{lof}{\defcounter {refsection}{0}\relax }\@writefile{lof}{\contentsline {figure}{\numberline {6.6}{\ignorespaces Comparison of experimental and model images at three different source-to-collimator distances. Left column: Experimental images. Right column: Model images. Top row: source closest to collimator, h = 30mm. Middle row: source at middle distance from collimator, h = 349mm. Bottom row: source furthest away from collimator, h = 650mm.\relax }}{28}}
\newlabel{ParallelExpImages}{{6.6}{28}}
\newlabel{ParallelExpSens}{{6.7a}{29}}
\newlabel{sub@ParallelExpSens}{{a}{29}}
\newlabel{ParallelExpEff}{{6.7b}{29}}
\newlabel{sub@ParallelExpEff}{{b}{29}}
\@writefile{lof}{\defcounter {refsection}{0}\relax }\@writefile{lof}{\contentsline {figure}{\numberline {6.7}{\ignorespaces Plots to show how the sensitivity and efficiency of a square parallel hole collimator depend on source-to-collimator distance for the model (orange) compared to experiment (blue).\relax }}{29}}
\newlabel{ParallelExpSensEff}{{6.7}{29}}
\@writefile{toc}{\defcounter {refsection}{0}\relax }\@writefile{toc}{\contentsline {section}{\numberline {7}Conclusions and Suggested Improvements}{30}}
\@writefile{toc}{\defcounter {refsection}{0}\relax }\@writefile{toc}{\contentsline {section}{\numberline {A}Collimator Dimensions}{31}}
\newlabel{ColDimensions}{{A}{31}}
\@writefile{toc}{\defcounter {refsection}{0}\relax }\@writefile{toc}{\contentsline {subsection}{\numberline {A.1}Tungsten Knife-edge Pinhole}{31}}
\newlabel{Pinhole}{{A.1}{31}}
\@writefile{toc}{\defcounter {refsection}{0}\relax }\@writefile{toc}{\contentsline {subsection}{\numberline {A.2}Tungsten 128x128 Square Parallel Hole Collimator}{31}}
\newlabel{128x128Parallel}{{A.2}{31}}
\@writefile{toc}{\defcounter {refsection}{0}\relax }\@writefile{toc}{\contentsline {subsection}{\numberline {A.3}Tungsten 7x7 Square Parallel Hole Collimator}{32}}
\newlabel{7x7Parallel}{{A.3}{32}}
\@writefile{toc}{\defcounter {refsection}{0}\relax }\@writefile{toc}{\contentsline {subsection}{\numberline {A.4}Titanium 36x36 Square Parallel Hole Collimator}{32}}
\newlabel{36x36Parallel}{{A.4}{32}}
\@writefile{toc}{\defcounter {refsection}{0}\relax }\@writefile{toc}{\contentsline {subsection}{\numberline {A.5}Lead Hexagonal Parallel Hole Collimator}{33}}
\abx@aux@refcontextdefaultsdone
\abx@aux@defaultrefcontext{0}{BeerLambert}{none/global//global/global}
\abx@aux@defaultrefcontext{0}{ParallelHole}{none/global//global/global}
\abx@aux@defaultrefcontext{0}{Kjell}{none/global//global/global}
\abx@aux@defaultrefcontext{0}{Activity}{none/global//global/global}
\abx@aux@defaultrefcontext{0}{CoDataSheet}{none/global//global/global}
\abx@aux@defaultrefcontext{0}{SolidAngle}{none/global//global/global}
\abx@aux@defaultrefcontext{0}{Pinhole}{none/global//global/global}
